{
    "info": [{
        "alarmId": "CONTROLBOARD_NOT_RESPONDING",
        "description": "Control Board FPGA is not responding.",
        "priority": "Critical Alarm",
        "action": "Fluidics Halt,Task Halt, Incubator Halt, Motion Halt",
        "response": "None",
        "selfclear": "No",
        "sound": "Yes"
    }, {
        "alarmId": "CONTROLBOARD_NOT_RECOGNIZED",
        "description": "Control Board FPGA version not supported by software.",
        "priority": "Critical Alarm",
        "action": "None",
        "response": "None",
        "selfclear": "No",
        "sound": "Yes"
    }, {
        "alarmId": "PUMPS_PLUS_NOT_RECOGNIZED",
        "description": "Pumps Plus FPGA interface version not supported by software.",
        "priority": "Critical Alarm",
        "action": "None",
        "response": "None",
        "selfclear": "No",
        "sound": "Yes"
    }, {
        "alarmId": "NVRAM_HARDWARE_ERROR",
        "description": "NVRAM hardware not present or not recognizable.",
        "priority": "Alarm",
        "action": "None",
        "response": "Continue",
        "selfclear": "No",
        "sound": "Yes"
    }, {
        "alarmId": "NVRAM_DATA_ERROR",
        "description": "After a power fail recovery, power fail data corrupt.",
        "priority": "Alarm",
        "action": "None",
        "response": "Continue",
        "selfclear": "No",
        "sound": "Yes"
    }, {
        "alarmId": "INCUBATOR_DOOR_OPEN",
        "description": "Incubator door open for longer than 10 minutes and the incubator is turned on.",
        "priority": "Alarm",
        "action": "None",
        "response": "Minimize, Continue",
        "selfclear": "Yes",
        "sound": "Yes"
    }, {
        "alarmId": "INCUBATOR_TEMP_1C_OVERSP",
        "description": "Incubator temperature exceeded the set point by greater than 1 °C for longer than 30 minutes.",
        "priority": "Critical Alarm",
        "action": "Incubator Halt",
        "response": "Minimize, Continue",
        "selfclear": "No",
        "sound": "Yes"
    }, {
        "alarmId": "INCUBATOR_TEMP_OVER40C",
        "description": "Incubator temperature exceeded 40 °C for more than 5 minutes.",
        "priority": "Critical Alarm",
        "action": "",
        "response": "",
        "selfclear": "",
        "sound": "Yes"
    }, {
        "alarmId": "INCUBATOR_TEMP_3C_OVERSP",
        "description": "Incubator temperature exceeded set point by greater than 3 °C.",
        "priority": "Critical Alarm",
        "action": "Incubator Halt",
        "response": "Minimize, Continue",
        "selfclear": "No",
        "sound": "Yes"
    }, {
        "alarmId": "INCUBATOR_TEMP_HALFC_OVERSP",
        "description": "Incubator temperature exceeded the set point by greater than 0.5 °C for longer than 30 minutes.",
        "priority": "Alarm",
        "action": "None",
        "response": "Minimize, Continue",
        "selfclear": "No",
        "sound": "Yes"
    }, {
        "alarmId": "INCUBATOR_SP_NOT_REACHED",
        "description": "Low temperature alarms are enabled AND Incubator temperature is less than the set point minus a configurable value AND Either 1) three hours have elapsed with the incubator door closed, the incubator enabled, and the combined inlet flow has not exceeded 20 mL/min for more than 7 mL OR 2) the set point has been reached and neither has the incubator door opened nor the combined inlet flow rate exceeded 20 mL/min for more than 7 mL since.",
        "priority": "Alarm",
        "action": "None",
        "response": "Minimize, Continue",
        "selfclear": "No",
        "sound": "Yes"
    }, {
        "alarmId": "INCUBATOR_SP_LOST",
        "description": "Incubator temperature fell below 0.5 °C of set point for longer than 15 minutes after reaching the set point.",
        "priority": "Alarm",
        "action": "None",
        "response": "Self Clear, Ignore, Minimize",
        "selfclear": "",
        "sound": "Yes"
    }, {
        "alarmId": "INCUBATOR_TEMP_NOT_RISING",
        "description": "Temperature is below the set point ± 0.5 °C and the door is closed and the temperature does not rise > 0.1 °C every 30 minutes and the incubator is turned on.",
        "priority": "Alarm",
        "action": "None",
        "response": "Self Clear, Continue, Ignore, Minimize",
        "selfclear": "",
        "sound": "Yes"
    }, {
        "alarmId": "INCUBATOR_AIR1_VS_AIR2",
        "description": "Incubator air temperature sensor 1 and air temperature sensor 2 differ by more than 5 °C.",
        "priority": "Critical Alarm",
        "action": "Incubator Halt",
        "response": "Minimize, Continue",
        "selfclear": "No",
        "sound": "Yes"
    }, {
        "alarmId": "EM_TEMP_OVER60C",
        "description": "The system shall raise an alarm if the SBC BIOS exceeds 60 °C.",
        "priority": "Critical Alarm",
        "action": "Fluidics Halt,Task Halt, Incubator Halt, Motion Halt",
        "response": "Minimize, Continue",
        "selfclear": "",
        "sound": "Yes"
    }, {
        "alarmId": "ROCKER_OUT_OF_POSITION_PRIME",
        "description": "Rocker failed to home during Prime task.",
        "priority": "Critical Alarm",
        "action": "Fluidics Halt, Task Halt, Motion Halt",
        "response": "Minimize, Continue",
        "selfclear": "",
        "sound": "Yes"
    }, {
        "alarmId": "ROCKER_OUT_OF_POSITION_TASK",
        "description": "Rocker failed to home outside of Prime task.",
        "priority": "Critical Alarm",
        "action": "Motion Halt",
        "response": "Minimize, Continue",
        "selfclear": "No",
        "sound": "Yes"
    }, {
        "alarmId": "ROCKER_HOMING_ERROR",
        "description": "Rocker failed to home.",
        "priority": "Critical Alarm",
        "action": "Motion Halt",
        "response": "Minimize, Continue",
        "selfclear": "",
        "sound": "Yes"
    }, {
        "alarmId": "TMPINLET_PRESSURE_WARNING",
        "description": "TMP inlet exceeds 750 mmHg.",
        "priority": "Alarm",
        "action": "None",
        "response": "Minimize, Continue",
        "selfclear": "No",
        "sound": "Yes"
    }, {
        "alarmId": "TMPOUTLET_PRESSURE_WARNING",
        "description": "TMP outlet exceeds 750 mmHg.",
        "priority": "Alarm",
        "action": "None",
        "response": "Minimize, Continue",
        "selfclear": "No",
        "sound": "Yes"
    }, {
        "alarmId": "ICINLET_PRESSURE_WARNING",
        "description": "IcInlet pressure greater than or equal to 1000 mmHg. (Pinched Line/Failed sensor)",
        "priority": "Critical Alarm",
        "action": "Fluidics Halt, Task Halt, Motion Halt",
        "response": "Minimize, Continue",
        "selfclear": "No",
        "sound": "Yes"
    }, {
        "alarmId": "ICOUTLET_PRESSURE_WARNING",
        "description": "Ic outlet pressure greater than or equal to 1000 mmHg. (Pinched Line/Failed sensor)",
        "priority": "Critical Alarm",
        "action": "Fluidics Halt, Task Halt, Motion Halt",
        "response": "Minimize, Continue",
        "selfclear": "No",
        "sound": "Yes"
    }, {
        "alarmId": "ECINLET_PRESSURE_WARNING",
        "description": "EcInlet pressure greater than or equal to 1000 mmHg. (Pinched Line/Failed sensor)",
        "priority": "Critical Alarm",
        "action": "Fluidics Halt, Task Halt, Motion Halt",
        "response": "Minimize, Continue",
        "selfclear": "No",
        "sound": "Yes"
    }, {
        "alarmId": "ECOUTLET_PRESSURE_WARNING",
        "description": "Ec outlet pressure greater than or equal to 1000 mmHg. (Pinched Line/Failed sensor)",
        "priority": "Critical Alarm",
        "action": "Fluidics Halt, Task Halt, Motion Halt",
        "response": "Minimize, Continue",
        "selfclear": "No",
        "sound": "Yes"
    }, {
        "alarmId": "PRESSURE_RANGE_CHECK_FAILED",
        "description": "Software zeroed a pressure sensor AND any sensor is calibrated in a way that renders it incapable of reading 1500 mmHg.",
        "priority": "Critical Alarm",
        "action": "Task Halt",
        "response": "Minimize, Continue",
        "selfclear": "No",
        "sound": "Yes"
    }, {
        "alarmId": "PRESSURE_RESOLUTION_CHECK_FAILED",
        "description": "Software zeroed a pressure sensor AND any pressure sensor is calibrated in a way that prevents it from detecting a 1 mmHg pressure change.",
        "priority": "Critical Alarm",
        "action": "Task Halt",
        "response": "Minimize, Continue",
        "selfclear": "No",
        "sound": "Yes"
    }, {
        "alarmId": "VALVE_CELL_INLET_POSITION_NOT_REACHED",
        "description": "Cell Inlet valve failed to reach destination within 2 seconds.",
        "priority": "Critical Alarm",
        "action": "Fluidics Halt, Task Halt",
        "response": "Minimize, Continue",
        "selfclear": "No",
        "sound": "Yes"
    }, {
        "alarmId": "VALVE_IC_MEDIA_POSITION_NOT_REACHED",
        "description": "IC Media valve failed to reach destination within 2 seconds.",
        "priority": "Critical Alarm",
        "action": "Fluidics Halt, Task Halt",
        "response": "Minimize, Continue",
        "selfclear": "No",
        "sound": "Yes"
    }, {
        "alarmId": "VALVE_REAGENT_POSITION_NOT_REACHED",
        "description": "Reagent valve failed to reach destination within 2 seconds.",
        "priority": "Critical Alarm",
        "action": "Fluidics Halt, Task Halt",
        "response": "Minimize, Continue",
        "selfclear": "No",
        "sound": "Yes"
    }, {
        "alarmId": "VALVE_WASH_POSITION_NOT_REACHED",
        "description": "Wash valve failed to reach destination within 2 seconds.",
        "priority": "Critical Alarm",
        "action": "Fluidics Halt, Task Halt",
        "response": "Minimize, Continue",
        "selfclear": "No",
        "sound": "Yes"
    }, {
        "alarmId": "VALVE_EC_MEDIA_POSITION_NOT_REACHED",
        "description": "EC Media valve failed to reach destination within 2 seconds.",
        "priority": "Critical Alarm",
        "action": "Fluidics Halt, Task Halt",
        "response": "Minimize, Continue",
        "selfclear": "No",
        "sound": "Yes"
    }, {
        "alarmId": "VALVE_DISTRIBUTION_POSITION_NOT_REACHED",
        "description": "Distribution valve failed to reach destination within 2 seconds.",
        "priority": "Critical Alarm",
        "action": "Fluidics Halt, Task Halt",
        "response": "Minimize, Continue",
        "selfclear": "No",
        "sound": "Yes"
    }, {
        "alarmId": "VALVE_ARC_VENT_POSITION_NOT_REACHED",
        "description": "ARC Vent valve failed to reach destination within 2 seconds.",
        "priority": "Critical Alarm",
        "action": "Fluidics Halt, Task Halt",
        "response": "Minimize, Continue",
        "selfclear": "No",
        "sound": "Yes"
    }, {
        "alarmId": "VALVE_IC_CIRCULATION_POSITION_NOT_REACHED",
        "description": "IC Circulation valve failed to reach destination within 2 seconds.",
        "priority": "Critical Alarm",
        "action": "Fluidics Halt, Task Halt",
        "response": "Minimize, Continue",
        "selfclear": "No",
        "sound": "Yes"
    }, {
        "alarmId": "VALVE_HARVEST_POSITION_NOT_REACHED",
        "description": "Harvest valve failed to reach destination within 2 seconds.",
        "priority": "Critical Alarm",
        "action": "Fluidics Halt, Task Halt",
        "response": "Minimize, Continue",
        "selfclear": "No",
        "sound": "Yes"
    }, {
        "alarmId": "VALVE_IC_WASTE_POSITION_NOT_REACHED",
        "description": "IC Waste valve failed to reach destination within 2 seconds.",
        "priority": "Critical Alarm",
        "action": "Fluidics Halt, Task Halt",
        "response": "Minimize, Continue",
        "selfclear": "No",
        "sound": "Yes"
    }, {
        "alarmId": "VALVE_EC_WASTE_POSITION_NOT_REACHED",
        "description": "EC Waste valve failed to reach destination within 2 seconds.",
        "priority": "Critical Alarm",
        "action": "Fluidics Halt, Task Halt",
        "response": "Minimize, Continue",
        "selfclear": "No",
        "sound": "Yes"
    }, {
        "alarmId": "VALVE_CELL_INLET_LEAVES_POSITION",
        "description": "If the Cell Inlet valve leaves its commanded position after reaching it.",
        "priority": "Critical Alarm",
        "action": "Fluidics Halt, Task Halt",
        "response": "Minimize, Continue",
        "selfclear": "No",
        "sound": "Yes"
    }, {
        "alarmId": "VALVE_IC_MEDIA_LEAVES_POSITION",
        "description": "If the IC Media valve leaves its commanded position after reaching it.",
        "priority": "Critical Alarm",
        "action": "Fluidics Halt, Task Halt",
        "response": "Minimize, Continue",
        "selfclear": "No",
        "sound": "Yes"
    }, {
        "alarmId": "VALVE_REAGENT_LEAVES_POSITION",
        "description": "If the Reagent valve leaves its commanded position after reaching it.",
        "priority": "Critical Alarm",
        "action": "Fluidics Halt, Task Halt",
        "response": "Minimize, Continue",
        "selfclear": "No",
        "sound": "Yes"
    }, {
        "alarmId": "VALVE_WASH_LEAVES_POSITION",
        "description": "If the Wash valve leaves its commanded position after reaching it.",
        "priority": "Critical Alarm",
        "action": "Fluidics Halt, Task Halt",
        "response": "Minimize, Continue",
        "selfclear": "No",
        "sound": "Yes"
    }, {
        "alarmId": "VALVE_EC_MEDIA_LEAVES_POSITION",
        "description": "If the EC Media valve leaves its commanded position after reaching it.",
        "priority": "Critical Alarm",
        "action": "Fluidics Halt, Task Halt",
        "response": "Minimize, Continue",
        "selfclear": "No",
        "sound": "Yes"
    }, {
        "alarmId": "VALVE_DISTRIBUTION_LEAVES_POSITION",
        "description": "If the Distribution valve leaves its commanded position after reaching it.",
        "priority": "Critical Alarm",
        "action": "Fluidics Halt, Task Halt",
        "response": "Minimize, Continue",
        "selfclear": "No",
        "sound": "Yes"
    }, {
        "alarmId": "VALVE_ARC_VENT_LEAVES_POSITION",
        "description": "If the ARC Vent valve leaves its commanded position after reaching it.",
        "priority": "Critical Alarm",
        "action": "Fluidics Halt, Task Halt",
        "response": "Minimize, Continue",
        "selfclear": "No",
        "sound": "Yes"
    }, {
        "alarmId": "VALVE_IC_CIRCULATION_LEAVES_POSITION",
        "description": "If the IC Circulation valve leaves its commanded position after reaching it.",
        "priority": "Critical Alarm",
        "action": "Fluidics Halt, Task Halt",
        "response": "Minimize, Continue",
        "selfclear": "No",
        "sound": "Yes"
    }, {
        "alarmId": "VALVE_HARVEST_LEAVES_POSITION",
        "description": "If the Harvest valve leaves its commanded position after reaching it.",
        "priority": "Critical Alarm",
        "action": "Fluidics Halt, Task Halt",
        "response": "Minimize, Continue",
        "selfclear": "No",
        "sound": "Yes"
    }, {
        "alarmId": "VALVE_IC_WASTE_LEAVES_POSITION",
        "description": "If the IC Waste valve leaves its commanded position after reaching it.",
        "priority": "Critical Alarm",
        "action": "Fluidics Halt, Task Halt",
        "response": "Minimize, Continue",
        "selfclear": "No",
        "sound": "Yes"
    }, {
        "alarmId": "VALVE_EC_WASTE_LEAVES_POSITION",
        "description": "If the EC Waste valve leaves its commanded position after reaching it.",
        "priority": "Critical Alarm",
        "action": "Fluidics Halt, Task Halt",
        "response": "Minimize, Continue",
        "selfclear": "No",
        "sound": "Yes"
    }, {
        "alarmId": "FLUIDICS_IC_INLET_PUMP_FAILED",
        "description": "If the IC Inlet pump is out of expected position by at least 50% over 5 revolutions. ",
        "priority": "Critical Alarm",
        "action": "Fluidics Halt, Task Halt",
        "response": "Minimize, Continue",
        "selfclear": "No",
        "sound": "Yes"
    }, {
        "alarmId": "FLUIDICS_EC_INLET_PUMP_FAILED",
        "description": "If the EC Inlet pump is out of expected position by at least 50% over 5 revolutions. ",
        "priority": "Critical Alarm",
        "action": "Fluidics Halt, Task Halt",
        "response": "Minimize, Continue",
        "selfclear": "No",
        "sound": "Yes"
    }, {
        "alarmId": "FLUIDICS_IC_CIRCULATION_PUMP_FAILED",
        "description": "If the IC Circulation pump is out of expected position by at least 50% over 5 revolutions. ",
        "priority": "Critical Alarm",
        "action": "Fluidics Halt, Task Halt",
        "response": "Minimize, Continue",
        "selfclear": "No",
        "sound": "Yes"
    }, {
        "alarmId": "FLUIDICS_EC_CIRCULATION_PUMP_FAILED",
        "description": "If the EC Circulation pump is out of expected position by at least 50% over 5 revolutions. ",
        "priority": "Critical Alarm",
        "action": "Fluidics Halt, Task Halt",
        "response": "Minimize, Continue",
        "selfclear": "No",
        "sound": "Yes"
    }, {
        "alarmId": "FLUIDICS_IC_INLET_PUMP_STARTUP_FAILED",
        "description": "The IC Inlet pump was commanded to start AND accumulated volume since the command to start is less than 50% of expected AND at least 10 seconds have lapsed since the command to start AND the pump was expected to turn at least 0.25 revolutions since the command to start.",
        "priority": "Critical Alarm",
        "action": "Fluidics Halt, Task Halt",
        "response": "Minimize, Continue",
        "selfclear": "No",
        "sound": "Yes"
    }, {
        "alarmId": "FLUIDICS_EC_INLET_PUMP_STARTUP_FAILED",
        "description": "The EC Inlet pump was commanded to start AND accumulated volume since the command to start is less than 50% of expected AND at least 10 seconds have lapsed since the command to start AND the pump was expected to turn at least 0.25 revolutions since the command to start.",
        "priority": "Critical Alarm",
        "action": "Fluidics Halt, Task Halt",
        "response": "Minimize, Continue",
        "selfclear": "No",
        "sound": "Yes"
    }, {
        "alarmId": "FLUIDICS_IC_CIRCULATION_PUMP_STARTUP_FAILED",
        "description": "The IC Circulation pump was commanded to start AND accumulated volume since the command to start is less than 50% of expected AND at least 10 seconds have lapsed since the command to start AND the pump was expected to turn at least 0.25 revolutions since the command to start.",
        "priority": "Critical Alarm",
        "action": "Fluidics Halt, Task Halt",
        "response": "Minimize, Continue",
        "selfclear": "No",
        "sound": "Yes"
    }, {
        "alarmId": "FLUIDICS_EC_CIRCULATION_PUMP_STARTUP_FAILED",
        "description": "The EC Circulation pump was commanded to start AND accumulated volume since the command to start is less than 50% of expected AND at least 10 seconds have lapsed since the command to start AND the pump was expected to turn at least 0.25 revolutions since the command to start.",
        "priority": "Critical Alarm",
        "action": "Fluidics Halt, Task Halt",
        "response": "Minimize, Continue",
        "selfclear": "No",
        "sound": "Yes"
    }, {
        "alarmId": "EC_FLUID_INSUFFICIENT",
        "description": "EC fluid sensor shows air and EC inlet pump volume exceeds 150% of VMTECS. ",
        "priority": "Critical Alarm",
        "action": "None",
        "response": "Minimize, Continue",
        "selfclear": "No",
        "sound": "Yes"
    }, {
        "alarmId": "ARC_FILL_OPERATION_FAILED",
        "description": "1) During an attempt to fill the ARC to the bottom level sensor, 150%*VMTBS mL has been pumped from the inlet source, and the bottom level sensor shows air OR 2) During an attempt to fill the ARC to the top level sensor, 150%*VMTTS has been pumped from the inlet source, and the top level sensor shows air. ",
        "priority": "Critical Alarm",
        "action": "Inlet Pumps off,Inlet Valves Closed,Task Halt",
        "response": "Minimize, Continue",
        "selfclear": "No",
        "sound": "Yes"
    }, {
        "alarmId": "FLUID_SEEN_START_PRIME",
        "description": "At the start of prime, any fluid sensor reports fluid.",
        "priority": "Critical Alarm",
        "action": "Stop Task (Prime)",
        "response": "Minimize, Continue",
        "selfclear": "No",
        "sound": "Yes"
    }, {
        "alarmId": "LEAK_DETECTED",
        "description": "Any leak detector reports liquid AND a load or unload disposable set task is not running.",
        "priority": "Critical Alarm",
        "action": "Close All Valves, Task Halt, Motion Halt",
        "response": "Minimize, Continue",
        "selfclear": "No",
        "sound": "Yes"
    }, {
        "alarmId": "ARC_UNEXPECTED_EMPTY",
        "description": "The software is performing a “Prime” or “Connect Sampling Coil” task AND the IC Inlet pump is turning AND the ARC bottom level sensor shows air AND the system is not filling the ARC. ",
        "priority": "Critical Alarm",
        "action": "Task Halt",
        "response": "Minimize, Continue",
        "selfclear": "No",
        "sound": "Yes"
    }, {
        "alarmId": "ARC_DRAIN_OPERATION_FAILED",
        "description": "45 seconds have elapsed since the beginning of a drain ARC operation AND the ARC bottom level sensor has not shown air.",
        "priority": "Critical Alarm",
        "action": "Inlet Pumps off,Inlet Valves Closed,Task Halt",
        "response": "Minimize, Continue",
        "selfclear": "No",
        "sound": "Yes"
    }, {
        "alarmId": "HARDWARE_COMM_ERROR",
        "description": "An API returned an error status rather than an expected value (internal device failure).",
        "priority": "Critical Alarm",
        "action": "None",
        "response": "None",
        "selfclear": "No",
        "sound": "Yes"
    }, {
        "alarmId": "CONFIG_FILE_INVALID",
        "description": "A configuration file cannot be located OR a configuration file contains invalid XML.",
        "priority": "Alarm",
        "action": "None",
        "response": "Minimize, Continue",
        "selfclear": "No",
        "sound": "Yes"
    }, {
        "alarmId": "CONFIG_FILE_MERGE",
        "description": "An expected value could not be located in a configuration file.",
        "priority": "Alarm",
        "action": "None",
        "response": "Minimize, Continue",
        "selfclear": "No",
        "sound": "Yes"
    }, {
        "alarmId": "CONFIG_USER_AUTH_DISABLED",
        "description": "User Authentication was automatically disabled due to a bad or lost configuration file",
        "priority": "Alarm",
        "action": "None",
        "response": "Minimize, Continue",
        "selfclear": "No",
        "sound": "Yes"
    }, {
        "alarmId": "SOFTCRC_CHECK_FAILED",
        "description": "Any operating system or executable Quantum file is corrupted.",
        "priority": "Critical Alarm",
        "action": "None",
        "response": "None",
        "selfclear": "No",
        "sound": "Yes"
    }, {
        "alarmId": "TASK_INTERRUPTED_BY_POWER_FAIL",
        "description": "System power was interrupted while a task was in progress.  This alarm shall display the name of the task.",
        "priority": "Warning",
        "action": "None",
        "response": "Continue",
        "selfclear": "No",
        "sound": "Yes"
    }, {
        "alarmId": "TASK_RESUMED_AFTER_POWER_FAIL",
        "description": "System power was interrupted while a processing run was in progress.  This alarm shall display the name of the current task (which could be Idle if no task is running). This alarm shall assert if the task was successfully recovered to its last recorded state.  ",
        "priority": "Alert",
        "action": "None",
        "response": "Continue",
        "selfclear": "No",
        "sound": "Yes"
    }, {
        "alarmId": "TASK_PAUSED_AFTER_POWER_FAIL",
        "description": "System power was interrupted while a task was in progress.  This alarm shall display the name of the current task. This alarm shall assert if the task was successfully recovered to its last recorded state, but upon recovery from reset the door was open.  ",
        "priority": "Alarm",
        "action": "Task Pause",
        "response": "Continue",
        "selfclear": "No",
        "sound": "Yes"
    }, {
        "alarmId": "REPORTS_SEND_TO_SERVER_FAIL",
        "description": "Report send to FTP Server failed",
        "priority": "Alarm",
        "action": "None",
        "response": "Minimize, Continue",
        "selfclear": "",
        "sound": ""
    }, {
        "alarmId": "RUN_REPORT_EVENTS_LOST",
        "description": "Run report events lost due to system power being interrupted.  This alarm shall display the number of lost events detected.",
        "priority": "Alert",
        "action": "None",
        "response": "Continue",
        "selfclear": "No",
        "sound": "Yes"
    }, {
        "alarmId": "REPORT_FILE_INVALID",
        "description": "Run report file missing or invalid.",
        "priority": "Alert",
        "action": "None",
        "response": "Minimize, Continue",
        "selfclear": "No",
        "sound": "Yes"
    }, {
        "alarmId": "REPORTS_LIST_INVALID",
        "description": "List of run reports is missing or invalid.",
        "priority": "Alert",
        "action": "None",
        "response": "Minimize, Continue",
        "selfclear": "No",
        "sound": "Yes"
    }, {
        "alarmId": "CONFIGURATION_HISTORY_FILE_INVALID",
        "description": "Configuration report file missing or invalid.",
        "priority": "Alert",
        "action": "None",
        "response": "Minimize, Continue",
        "selfclear": "No",
        "sound": "Yes"
    }, {
        "alarmId": "REMOTE_ALARM_SERVER_CONNECT_LOST",
        "description": "Loss of Connection to Remote Alarm Server.",
        "priority": "Alarm",
        "action": "None",
        "response": "Minimize, Continue",
        "selfclear": "No",
        "sound": ""
    }]
}