{"strings": {
    "cause": "Olası Neden",
    "action": "Eylem Adımları",
    "start": "Makine Başlatma Testleri",
    "not_conn": "Hasta Bağlı Değil",
    "conn": "Hasta Bağlı",
    "disconn": "Hasta Ayrıldı",
    "instructions": "Ekranda Görüntülenen Yönergeler",
    "information": "Alarm Bilgileri",
    "identification": "Alarm Tanımlaması",
    "layer": "Katman",
    "system": "Sistem",
    "protocol": "Protokol",
    "alarm_name": "Alarm Adı",
    "alarm_expl": "Alarm Açıklaması",
    "state": "System State",
        "message_number": "Mesaj numarası",
    "message_type": "Mesaj türü",
    "version": "Sürüm",   
    "occurs": "Ortaya çıktığı aşama",
    "more_info1": "Daha fazla bilgi 1",
    "more_info2": "Daha fazla bilgi 2",
    "more_info3": "Daha fazla bilgi 3",
    "more_info4": "Daha fazla bilgi 4",
    "more_info5": "Daha fazla bilgi 5",
    "more_info6": "Daha fazla bilgi 6",
                "description": "Alarm Description (En placeholder)",
    "response": "System Response (En placeholder)",
    "causeaction": "Possible Cause/Operator Action (En placeholder)",
    "possible_cause": "Possible Cause (En placeholder)",
    "operator_action": "Operator Action (En placeholder)"
}}
