{"strings": {
    "cause": "Mahdollinen syy",
    "action": "Toimet",
    "start": "Koneen käynnistyksen aikaiset testit",
    "not_conn": "Potilas ei liitetty",
    "conn": "Potilas liitetty",
    "disconn": "Potilas irrotettu",
    "instructions": "Näytön ohjeet",
    "information": "Hälytystiedot",
    "identification": "Hälytyksen tunnistus",
    "layer": "Kerros",
    "system": "Järjestelmä",
    "protocol": "Protokolla",
    "alarm_name": "Hälytyksen nimi",
    "alarm_expl": "Hälytyksen kuvaus",
    "state": "Järjestelmän tila",
        "message_number": "Viestin numero",
    "message_type": "Viestin tyyppi",
    "version": "Versio",
    "occurs": "Annetaan yhteydessä",    
    "more_info1": "Lisätietoja 1",
    "more_info2": "Lisätietoja 2",
    "more_info3": "Lisätietoja 3",
    "more_info4": "Lisätietoja 4",
    "more_info5": "Lisätietoja 5",
    "more_info6": "Lisätietoja 6",
        "description": "Alarm Description (En placeholder)",
    "response": "System Response (En placeholder)",
    "causeaction": "Possible Cause/Operator Action (En placeholder)",
    "possible_cause": "Possible Cause (En placeholder)",
    "operator_action": "Operator Action (En placeholder)"
}}
